1 Breve Introdução ao R – Curso de Programação Estatística
…
library(dplyr)
library(hflights)
data(hflights)

Primeiro, converta os dados para o formato tbl_df, uma variação mais amigável do data.frame:

flights <- tbl_df(hflights)

1.11.1 Filter

A função filter retorna todas as linhas que satisfazem uma condição. Por exemplo, para mostrar todos os voos do dia 1º de janeiro:

flights %>% filter(Month == 1, DayofMonth == 1)

# A tibble: 552 × 21
    Year Month DayofMonth DayOfWeek DepTime ArrTime UniqueCarrier FlightNum
   <int> <int>      <int>     <int>   <int>   <int> <chr>             <int>
 1  2011     1          1         6    1400    1500 AA                  428
 2  2011     1          1         6     728     840 AA                  460
 3  2011     1          1         6    1631    1736 AA                 1121
 4  2011     1          1         6    1756    2112 AA                 1294
 5  2011     1          1         6    1012    1347 AA                 1700
 6  2011     1          1         6    1211    1325 AA                 1820
 7  2011     1          1         6     557     906 AA                 1994
 8  2011     1          1         6    1824    2106 AS                  731
 9  2011     1          1         6     654    1124 B6                  620
10  2011     1          1         6    1639    2110 B6                  622
# ℹ 542 more rows
# ℹ 13 more variables: TailNum <chr>, ActualElapsedTime <int>, AirTime <int>,
#   ArrDelay <int>, DepDelay <int>, Origin <chr>, Dest <chr>, Distance <int>,
#   TaxiIn <int>, TaxiOut <int>, Cancelled <int>, CancellationCode <chr>,
#   Diverted <int>

Para condições alternativas, podemos usar o operador | (ou) ou %in%:

flights %>% filter(UniqueCarrier %in% c("AA", "UA"))

# A tibble: 5,316 × 21
    Year Month DayofMonth DayOfWeek DepTime ArrTime UniqueCarrier FlightNum
   <int> <int>      <int>     <int>   <int>   <int> <chr>             <int>
 1  2011     1          1         6    1400    1500 AA                  428
 2  2011     1          2         7    1401    1501 AA                  428
 3  2011     1          3         1    1352    1502 AA                  428
 4  2011     1          4         2    1403    1513 AA                  428
 5  2011     1          5         3    1405    1507 AA                  428
 6  2011     1          6         4    1359    1503 AA                  428
 7  2011     1          7         5    1359    1509 AA                  428
 8  2011     1          8         6    1355    1454 AA                  428
 9  2011     1          9         7    1443    1554 AA                  428
10  2011     1         10         1    1443    1553 AA                  428
# ℹ 5,306 more rows
# ℹ 13 more variables: TailNum <chr>, ActualElapsedTime <int>, AirTime <int>,
#   ArrDelay <int>, DepDelay <int>, Origin <chr>, Dest <chr>, Distance <int>,
#   TaxiIn <int>, TaxiOut <int>, Cancelled <int>, CancellationCode <chr>,
#   Diverted <int>

1.11.2 Select

A função select seleciona colunas específicas de um data frame. Para selecionar as colunas DepTime, ArrTime, e FlightNum:

flights %>% select(DepTime, ArrTime, FlightNum)

# A tibble: 227,496 × 3
   DepTime ArrTime FlightNum
     <int>   <int>     <int>
 1    1400    1500       428
 2    1401    1501       428
 3    1352    1502       428
 4    1403    1513       428
 5    1405    1507       428
 6    1359    1503       428
 7    1359    1509       428
 8    1355    1454       428
 9    1443    1554       428
10    1443    1553       428
# ℹ 227,486 more rows

Para selecionar todas as colunas que contêm “Taxi” ou “Delay”:

flights %>% select(contains("Taxi"), contains("Delay"))

# A tibble: 227,496 × 4
   TaxiIn TaxiOut ArrDelay DepDelay
    <int>   <int>    <int>    <int>
 1      7      13      -10        0
 2      6       9       -9        1
 3      5      17       -8       -8
 4      9      22        3        3
 5      9       9       -3        5
 6      6      13       -7       -1
 7     12      15       -1       -1
 8      7      12      -16       -5
 9      8      22       44       43
10      6      19       43       43
# ℹ 227,486 more rows

1.11.3 Arrange

A função arrange ordena o data frame de acordo com algum critério. Para ordenar pelo atraso de partida (DepDelay):

flights %>% arrange(DepDelay)

# A tibble: 227,496 × 21
    Year Month DayofMonth DayOfWeek DepTime ArrTime UniqueCarrier FlightNum
   <int> <int>      <int>     <int>   <int>   <int> <chr>             <int>
 1  2011    12         24         6    1112    1314 OO                 5440
 2  2011     2         14         1    1917    2027 MQ                 3328
 3  2011     4         10         7    2101    2206 XE                 2669
 4  2011     8          3         3    1741    1810 XE                 2603
 5  2011     1         18         2    1542    1936 CO                 1688
 6  2011    10          4         2    1438    1813 EV                 5412
 7  2011     1         26         3    2248    2343 XE                 2450
 8  2011     3          8         2     953    1156 CO                 1882
 9  2011     3         18         5    2103    2156 XE                 2261
10  2011     4          3         7    1048    1307 MQ                 3796
# ℹ 227,486 more rows
# ℹ 13 more variables: TailNum <chr>, ActualElapsedTime <int>, AirTime <int>,
#   ArrDelay <int>, DepDelay <int>, Origin <chr>, Dest <chr>, Distance <int>,
#   TaxiIn <int>, TaxiOut <int>, Cancelled <int>, CancellationCode <chr>,
#   Diverted <int>

Para ordem decrescente:

flights %>% arrange(desc(DepDelay))

# A tibble: 227,496 × 21
    Year Month DayofMonth DayOfWeek DepTime ArrTime UniqueCarrier FlightNum
   <int> <int>      <int>     <int>   <int>   <int> <chr>             <int>
 1  2011     8          1         1     156     452 CO                    1
 2  2011    12         12         1     650     808 AA                 1740
 3  2011    11          8         2     721     948 MQ                 3786
 4  2011     6         21         2    2334     124 UA                  855
 5  2011     6          9         4    2029    2243 MQ                 3859
 6  2011     5         20         5     858    1027 MQ                 3328
 7  2011     1         20         4     635     807 CO                   59
 8  2011     6         22         3     908    1040 CO                  595
 9  2011    10         25         2    2310     149 DL                 1215
10  2011    12         13         2     706     824 MQ                 3328
# ℹ 227,486 more rows
# ℹ 13 more variables: TailNum <chr>, ActualElapsedTime <int>, AirTime <int>,
#   ArrDelay <int>, DepDelay <int>, Origin <chr>, Dest <chr>, Distance <int>,
#   TaxiIn <int>, TaxiOut <int>, Cancelled <int>, CancellationCode <chr>,
#   Diverted <int>

1.11.4 Mutate

A função mutate cria novas variáveis. Para criar a variável Speed (velocidade) e adicioná-la ao banco:

flights <- flights %>% mutate(Speed = Distance / AirTime * 60)

1.11.5 Summarise e Group_by

A função summarise calcula estatísticas resumo. Para calcular o atraso médio de chegada por destino:

flights %>% group_by(Dest) %>% summarise(avg_delay = mean(ArrDelay, na.rm = TRUE))

# A tibble: 116 × 2
   Dest  avg_delay
   <chr>     <dbl>
 1 ABQ        7.23
 2 AEX        5.84
 3 AGS        4   
 4 AMA        6.84
 5 ANC       26.1 
 6 ASE        6.79
 7 ATL        8.23
 8 AUS        7.45
 9 AVL        9.97
10 BFL      -13.2 
# ℹ 106 more rows
…
Por fim, podemos realizar agrupamentos múltiplos:

flights %>% group_by(UniqueCarrier, DayOfWeek) %>% summarise_each(funs(min(., na.rm = TRUE), max(., na.rm = TRUE)), matches("Delay"))

# A tibble: 105 × 6
# Groups:   UniqueCarrier [15]
   UniqueCarrier DayOfWeek ArrDelay_min DepDelay_min ArrDelay_max DepDelay_max
   <chr>             <int>        <int>        <int>        <int>        <int>
 1 AA                    1          -30          -14          978          970
 2 AA                    2          -30          -12          265          286
 3 AA                    3          -33          -15          179          168
 4 AA                    4          -38          -15          663          653
 5 AA                    5          -28          -13          255          234
 6 AA                    6          -39          -13          685          677
 7 AA                    7          -34          -15          507          525
 8 AS                    1          -30          -12          183          172
 9 AS                    2          -34          -12           92           68
10 AS                    3          -29          -12          123          138
# ℹ 95 more rows
…
